## Interface: 40300
## Title : AutoHCmessage
## Notes: Sets HCmessage to whatever you want on startup
## Author: Drivyn
## Version: 1.0
## Dependencies: 
## SavedVariablesPerCharacter:

AutoHCmessage.lua
